{
  "required" : true,
  "minVersion" : "0.8",
  "package" : "sigmaone.professionalism.mixin",
  "compatibilityLevel" : "JAVA_8",
  "mixins" : [
  ],
  "client" : [
  ],
  "injectors" : {
    "defaultRequire" : 1
  }
}
